212243 951366 525
687807 100658 509
46575 579386 470
692292 726211 504
14009 759236 509
653319 844995 525
302180 395633 441
655649 148384 509
428234 109578 449
763172 940006 525
362354 991839 525
844356 105311 525
17323 959420 525
919120 8238 525
701796 99168 509
433463 954379 525
55738 911699 525
161055 74144 383
554597 104243 470
150584 445473 449
197328 85060 383
180415 982780 525
556789 727154 509
690510 359202 509
8684 236159 443
433445 915897 525
454213 702769 509
583824 917503 525
716571 492510 509
189475 62719 383
337449 646458 509
202362 618937 470
705242 817172 468
210660 225786 386
858486 420965 525
606670 823370 509
249099 923668 525
232588 398198 441
377402 919077 525
839045 673618 525
603923 381228 470
418352 3292 449
671658 732127 504
266676 181246 443
443569 650206 509
415285 496192 444
29405 157090 383
578748 86956 470
202992 208903 373
111124 459145 449
222407 637679 509
149759 928910 525
514309 583937 452
544149 712026 509
717736 9875 509
378024 99055 443
342474 352131 441
200446 855336 525
48573 550702 470
58114 744003 509
774952 801634 468
631006 227910 509
950588 637847 525
285256 819212 509
97031 101007 341
390942 204099 443
690077 609489 509
363375 215039 443
410669 225245 449
489042 16834 449
95938 72282 351
661938 938452 525
682214 490646 509
46346 107445 354
47646 907453 525
395836 212901 443
398717 286226 441
166340 3845 383
64785 546166 470
48166 769008 509
447330 248510 449
451961 212627 449
549204 889666 525
352511 598342 470
442073 736696 509
828809 848575 525
405367 782910 509
119922 322693 443
583784 178381 470
148045 303291 443
147110 804728 509
712693 675295 504
876190 119604 525
679815 282955 509
744403 547320 509
212329 395731 443
284110 587221 470
626875 247679 509
602394 653593 509
924744 929690 476
613682 919895 525
940029 172509 525
138681 341592 443
302459 43943 443
340350 241711 407
611103 426272 470
85568 388171 443
886016 576168 525
101072 969484 525
521885 268988 470
487976 636848 509
697648 510474 509
968559 314095 525
66026 765685 509
40323 310749 443
932219 671727 525
613777 533809 452
827405 278271 509
639594 425773 509
905044 397185 525
71647 591225 470
768500 241130 509
768562 556723 509
461015 962576 525
289684 291366 327
470514 588904 470
812627 564762 509
259470 700086 509
620149 688875 509
880370 136290 525
441153 645516 509
367285 72690 443
403583 844389 525
401635 531392 470
277078 398983 441
27940 695460 509
15158 682814 509
890695 563714 525
224243 737994 509
424124 400174 449
306464 720655 509
882344 441995 525
774051 297113 509
438755 517512 470
173955 219690 386
737058 118661 509
774740 209428 509
702723 379940 509
743513 651356 504
399473 461003 449
91380 375847 443
261358 874950 525
783388 202440 509
101845 112343 354
138087 613559 470
718057 22544 509
633045 372128 509
7611 589258 470
583231 806696 509
794760 878525 525
201696 348175 443
550842 107270 470
960305 854220 507
723888 156899 509
110256 712780 509
180346 813775 509
81343 365303 443
984573 269182 525
597699 437894 470
119468 319932 443
366171 105463 443
570426 873723 525
533126 755997 509
935016 81661 525
583003 705062 509
487262 218853 449
10053 853311 525
622525 684629 509
192411 446047 449
428409 594483 470
254897 963728 525
879635 292725 525
985902 338006 525
348721 669407 509
642963 840249 525
707095 496796 509
859648 539349 525
64332 699608 509
285031 499986 449
218588 247901 443
755172 233672 509
111017 21937 354
609283 730933 509
528032 462979 470
554810 369468 470
327062 668402 509
37903 721267 509
412094 427420 418
407687 753163 509
731148 509890 509
